…
``` r
# get a sorted list of which artist has the most artworks in the tate
# one way to do this is a plain summary: 
# summary(art$artist)

# another way is to use dplyr, and group by artists 
# and count all entries of each group.
# "count" will do that for us:

art %>% 
  count(artist,sort=TRUE)
```

    ## # A tibble: 3,336 × 2
    ##                            artist     n
    ##                            <fctr> <int>
    ## 1  Turner, Joseph Mallord William 39389
    ## 2                   Jones, George  1046
    ## 3            Moore, Henry, OM, CH   623
    ## 4                Daniell, William   612
    ## 5                   Beuys, Joseph   578
    ## 6              British (?) School   388
    ## 7           Paolozzi, Sir Eduardo   385
    ## 8                   Flaxman, John   287
    ## 9               Phillips, Esq Tom   274
    ## 10                   Warhol, Andy   272
    ## # ... with 3,326 more rows

Seems like the Tate owns not around 30,300 works by Turner, but almost 40,000. But maybe they were not all aquired in the same year?

``` r
# get a dataframe of only artworks by Turner 
# do a count on the aquisition year:

art %>% 
  filter(artist == "Turner, Joseph Mallord William") %>%
  count(acquisitionYear,sort=TRUE)
```

    ## # A tibble: 28 × 2
    ##    acquisitionYear     n
    ##              <int> <int>
    ## 1             1856 37711
    ## 2             1988   791
    ## 3             1986   474
    ## 4             1925   154
    ## 5             1989    57
    ## 6             1987    53
    ## 7             1992    33
    ## 8               NA    28
    ## 9             1990    21
    ## 10            1984    20
    ## # ... with 18 more rows
…
That's better! Now we can see that the Tate aquired on average more and more ofter the years. We can get the numbers for that, too:

``` r
# get the years in which the most art works were aquired, 
# except the ones from Turner

noturner %>% 
  count(acquisitionYear, sort = TRUE)
```

    ## # A tibble: 179 × 2
    ##    acquisitionYear     n
    ##              <int> <int>
    ## 1             1997  3702
    ## 2             1975  3046
    ## 3             2009  1364
    ## 4             1979  1166
    ## 5             1888  1060
    ## 6             2008   787
    ## 7             1996   680
    ## 8             2004   643
    ## 9             1976   607
    ## 10            1982   597
    ## # ... with 169 more rows
…
Let's get a list of them:

``` r
# count all art works that have blank values as gender
# and sort them by artist
data %>% 
  filter(gender == "" ) %>%
  count(artist, sort = TRUE)
```

    ## # A tibble: 49 × 2
    ##                                                                    artist
    ##                                                                    <fctr>
    ## 1                                                      British (?) School
    ## 2                                             British School 18th century
    ## 3                                             British School 19th century
    ## 4                                                                Highmore
    ## 5                                             British School 17th century
    ## 6                                       Langlands and Bell, Ben and Nikki
    ## 7  Art & Language (Terry Atkinson, born 1939; Michael Baldwin, born 1945)
    ## 8     Art & Language (Michael Baldwin, born 1945; Mel Ramsden, born 1944)
    ## 9                                                                Lairesse
    ## 10                                              Martin, J., of Canterbury
    ## # ... with 39 more rows, and 1 more variables: n <int>
…
